"url_host_name","total"
"www.tumblr.com","3121890"
"getpocket.com","1372438"
"www.bloomberg.com","636747"
"vk.com","454298"
"www.worldcat.org","445979"
"www.flickr.com","434111"
"www.pinterest.com","421197"
"www.overplace.com","415675"
"www.topix.com","413090"
"bavo.biz","410318"
"telegram.me","388818"
"www.bandsintown.com","372904"
"www.hudl.com","371619"
"www.audiotool.com","366359"
"www.amazon.com","366218"
"docs.google.com","365842"
"itunes.apple.com","362984"
"sudaneseonline.com","360558"
"ezlocal.com","353825"
"www.ibegin.com","353001"
"drive.google.com","352445"
"accounts.google.com","348003"
"www.sciencephoto.com","347345"
"en.wikipedia.org","347116"
"m.vk.com","345823"
"factfinder.census.gov","344436"
"link.springer.com","338609"
"www.imdb.com","338431"
"www.foxnews.com","325807"
"www.viator.com","323112"
"www.booking.com","322503"
"www.4shared.com","311770"
"www.ncbi.nlm.nih.gov","307488"
"sites.google.com","306848"
"support.huawei.com","306633"
"animeonly.org","304864"
"www.xing.com","301065"
"www.youtube.com","299881"
"www.nytimes.com","297863"
"www.google.com","296785"
"www.eventbrite.com","283313"
"plus.google.com","279880"
"showup.tv","278785"
"www.biblegateway.com","276327"
"pinterest.com","272890"
"www.dx.com","272018"
"www.cnbc.com","271584"
"www.theguardian.com","258062"
"data.bnf.fr","257607"
"tunein.com","254240"
"b.hatena.ne.jp","253973"
"www.librarything.com","252118"
"500px.com","251723"
"www.oneplace.com","251436"
"daemon.indapass.hu","249698"
"www.baltimoresun.com","249270"
"www.livrariacultura.com.br","247166"
"who-called-you.co.uk","246722"
"session.wikispaces.com","246638"
"tools.wmflabs.org","240233"
"www.amazon.co.jp","240010"
"www.semanticscholar.org","239716"
"www.yellowpages.com","238528"
"townpage.goo.ne.jp","236086"
"ameblo.jp","235784"
"mycoven.com","235442"
"www.stumbleupon.com","235320"
"www.skyrock.com","234724"
"fr.wikipedia.org","234518"
"www.mapquest.com","234347"
"www.fotocommunity.de","233188"
"plusone.google.com","233069"
"tags.pixnet.net","232979"
"web.skype.com","232665"
"www.bbc.co.uk","231719"
"www.tv.com","231404"
"visit.okezone.co.uk","231219"
"www.strava.com","229735"
"www.wsj.com","227792"
"github.com","227100"
"doi.org","227002"
"www.startlocal.com.au","226735"
"www.mixcloud.com","226686"
"bit.ly","223123"
"www.amazon.de","222281"
"www.washingtontimes.com","221975"
"www.agoda.com","221795"
"www.etsy.com","221211"
"www.domainmarket.com","219261"
"mcc.godaddy.com","218710"
"blockchain.usc.edu","218482"
"experimental.worldcat.org","215969"
"www.ft.com","215751"
"www.alibris.com","215750"
"w.soundcloud.com","214913"
"dx.doi.org","214512"
"prezi.com","213353"
"yandex.ru","212279"
"www.yourdictionary.com","212140"
"www.chicagotribune.com","211797"
"hubpages.com","211593"
"mix.com","211028"
"www.ebay.de","210993"
"whisper.sh","210621"
"www.pressreader.com","210533"
"www.groupon.com","210498"
"medium.com","209888"
"www.shopstyle.com","209825"
"www.teacherspayteachers.com","209058"
"www.galaxus.ch","207845"
"www.apple.com","207672"
"videohive.net","207604"
"www.tes.com","206770"
"www.buzzfeed.com","206117"
"www2.hm.com","205961"
"bibles.org","205947"
"www.ebay.com.au","205886"
"soundcloud.com","205338"
"www.tripadvisor.de","205219"
"www.bhphotovideo.com","205078"
"www.apnews.com","204735"
"support.apple.com","204721"
"www.vrbo.com","204287"
"play.google.com","204000"
"www.dailymail.co.uk","203970"
"www.tripadvisor.com","203878"
"www.maxpreps.com","203759"
"www.liveexpert.ru","203459"
"www.lonelyplanet.com","202758"
"www.tripadvisor.com.au","202488"
"www.istockphoto.com","202394"
"www.zara.com","201562"
"www.tripadvisor.es","200446"
"www.tripadvisor.com.ar","199778"
"no.tripadvisor.com","199597"
"www.amazon.co.uk","199270"
"www.elyrics.net","199230"
"www.aliexpress.com","198915"
"sverigesradio.se","198366"
"www.tripadvisor.fr","198205"
"www.tripadvisor.com.eg","197678"
"shop.spreadshirt.com","197519"
"www.telecinco.es","197203"
"www.tripadvisor.com.br","196767"
"www.pond5.com","196686"
"undeveloped.com","196678"
"www.tripadvisor.in","196165"
"www.dailymotion.com","195886"
"www.healthgrades.com","195746"
"www.outlandsales.co.uk","194950"
"www.mynewsdesk.com","194850"
"ja.wikipedia.org","194825"
"www.marinetraffic.com","194554"
"docplayer.net","194448"
"www.callupcontact.com","194134"
"www.tripadvisor.it","194053"
"www.businessinsider.com","193679"
"www.scoop.it","193372"
"www.allmusic.com","193277"
"www.tripadvisor.ca","193226"
"www.tripadvisor.com.gr","192825"
"www.redbubble.com","192749"
"vimeo.com","192526"
"www.behance.net","192140"
"mapy.cz","192016"
"www.speedlist.com","191377"
"www.tripadvisor.ie","191208"
"audiomack.com","190880"
"add.my.yahoo.com","190744"
"www.airliners.net","190354"
"www.powells.com","189740"
"www.bodlon.com","189529"
"amzn.to","189480"
"www.dw.com","189404"
"faptorrent.com","189245"
"www.prisma.de","189241"
"www.tripadvisor.se","188705"
"www.net-a-porter.com","188572"
"www.discogs.com","188565"
"www.scribd.com","188475"
"www.tripadvisor.ru","187871"
"www.peopleperhour.com","187819"
"mixi.jp","187818"
"www.lovelybooks.de","187715"
"www.chamberofcommerce.com","187615"
"feedproxy.google.com","187313"
"www.tripadvisor.jp","187236"
"www.tripadvisor.dk","187207"
"ck.jp.ap.valuecommerce.com","187162"
"www.eyeem.com","187055"
"investorsafrica.com","186593"
"www.pinterest.co.uk","186407"
"pl.tripadvisor.com","186350"
"www.crestock.com","185952"
"goo.gl","185897"
"www.bbc.com","185868"
"www.legacy.com","185394"
"www.tripadvisor.nl","185365"
"sidex.ru","185044"
"www.dropbox.com","185020"
"www.ebay.co.uk","184979"
"www.tripadvisor.cl","184650"
"www.cafepress.com","183350"
"www.elocal.com","183287"
"wn.com","183183"
"www.mendeley.com","182681"
"stroyka.by","182529"
"people.com","182347"
"www.cars.com","182136"
"portokal.bg","181370"
"www.patreon.com","181369"
"www.martindale.com","181348"
"www.digitec.ch","181251"
"www.si.com","180932"
"www.organicearth.eu","180867"
"www.beckett.com","180739"
"th.tripadvisor.com","180590"
"n4g.com","180479"
"actorz.ru","180421"
"box.es","179501"
"www.telegraph.co.uk","178985"
"paper.li","178973"
"adviserinfo.sec.gov","178866"
"support.office.com","178750"
"3dwarehouse.sketchup.com","178548"
"www.pinterest.de","178376"
"www.meetup.com","178308"
"b2b.hc360.com","178128"
"audiojungle.net","178042"
"openlibrary.org","177677"
"wenda.so.com","177655"
"www.mapion.co.jp","177345"
"co.pinterest.com","177254"
"fineartamerica.com","176914"
"www.barnesandnoble.com","176772"
"wanelo.co","176643"
"seekingalpha.com","176402"
"travelingluck.com","176378"
"www.pinterest.fr","176009"
"www.trimcraftdirect.com","175887"
"om77.net","175714"
"www.target.com","175668"
"es.wikipedia.org","175639"
"localstack.com","175454"
"br.pinterest.com","175164"
"www.aol.com","175094"
"url.cn","174953"
"www.flightstats.com","174505"
"www.vinted.com","174389"
"www.jcpenney.com","173832"
"www.airbnb.fr","173060"
"vkontakte.ru","172963"
"www.keepcalm-o-matic.co.uk","172789"
"www.hindawi.com","172542"
"crozdesk.com","172171"
"www.jcrew.com","172048"
"uk.reuters.com","171974"
"www.rome2rio.com","171927"
"catused.cat.com","171651"
"m.tv.yandex.ru","171480"
"insights.ovid.com","170924"
"www.judysbook.com","170464"
"www.amazon.fr","170394"
"www.welt.de","170243"
"stitchontime.com","170100"
"blog.goo.ne.jp","169599"
"mora.jp","169001"
"www.pinterest.es","168932"
"my-shop.ru","168726"
"www.vinted.pl","168477"
"www.pinme.ru","168404"
"www.dk.freelancer.com","168381"
"threatwiki.checkpoint.com","168285"
"graphicriver.net","168270"
"www.weichert.com","167900"
"www.socialbakers.com","167449"
"nl.pinterest.com","167276"
"www.oreilly.com","167154"
"forums.macrumors.com","166730"
"townhall.com","166509"
"www.dagbladet.no","166163"
"www.domestika.org","166080"
"www.smithsonianmag.com","166024"
"www.mamikreisel.de","165953"
"blog.hatena.ne.jp","165497"
"musicbrainz.org","165103"
"m.rosegal.com","164900"
"www.nrc.nl","164764"
"www.ozon.ru","164740"
"www.spiedigitallibrary.org","164721"
"www.nbcnews.com","164701"
"youpic.com","164478"
"www.airbnb.de","164422"
"japan.cnet.com","164226"
"www.overstock.com","164202"
"www.portlandoregon.gov","163848"
"www.digikey.com","163593"
"www.kinopoisk.ru","163530"
"www.divorcerecordsonline.us","163498"
"www.ebay.com","163472"
"api.whatsapp.com","163067"
"www.tmz.com","162746"
"www.vinted.lt","162341"
"www.privateinvestigator.cc","162289"
"www.gigsalad.com","162016"
"ar.pinterest.com","162003"
"www.pinterest.ca","161966"
"www.macys.com","161214"
"www.hindustantimes.com","161162"
"www.ccma.cat","161155"
"www.goal.com","160831"
"www.mountainproject.com","160290"
"www.fr.freelancer.com","160218"
"www.gutefrage.net","159614"
"blog.livedoor.jp","159386"
"venta.automoviles.aol.com","158988"
"www.geocaching.com","158670"
"tabs.ultimate-guitar.com","158664"
"www.getfave.com","158550"
"www.xtube.com","158342"
"www.collinsdictionary.com","158274"
"www.washingtonpost.com","157720"
"autos.goo.ne.jp","157549"
"www.slideshare.net","157425"
"creativemarket.com","156961"
"society6.com","156350"
"zeenews.india.com","156281"
"tweakers.net","156121"
"www.liveauctioneers.com","156021"
"app.oneteam.net","155543"
"www.vinted.cz","155368"
"docplayer.org","155309"
"www.pinterest.jp","154906"
"www.vinted.fr","154765"
"www.ibs.it","154764"
"www.liveinternet.ru","154471"
"everything2.com","154463"
"www.synacor.com","154453"
"all-inkl.com","154385"
"www.holidaycheck.de","153824"
"www.fi.freelancer.com","153711"
"www.realestate.com.au","153283"
"www.nydailynews.com","153105"
"www.pandasecurity.com","153067"
"www.marketresearch.com","152973"
"www.saraiva.com.br","152961"
"www.jtb.co.jp","152912"
"www.la-croix.com","152594"
"www.musica.com","152383"
"www.mojopages.com","152260"
"www.onlinecomputer.com.au","151985"
"texashistory.unt.edu","151878"
"mashable.com","151546"
"archive.org","151538"
"infogram.com","151477"
"www.findagrave.com","150930"
"www.lg.com","150773"
"weather.com","150537"
"www.libris.nl","150511"
"samopoznanie.ru","150510"
"www.bing.com","150232"
"yaplog.jp","149865"
"account.viber.com","149646"
"promodj.com","149630"
"www.countryipblocks.net","149579"
"www.mindmeister.com","149463"
"investorseurope.technology","149097"
"uk.wikipedia.org","148862"
"www.pandora.com","148727"
"www.vitalsource.com","148512"
"www.replacements.com","148082"
"fr.tripadvisor.ca","148043"
"www.work.ua","147721"
"www.producthunt.com","147317"
"articles.latimes.com","147267"
"www.eharmony.com","147191"
"www.urbandictionary.com","147125"
"www.workana.com","146565"
"www.insee.fr","146377"
"www.bestbuy.com","146375"
"www.marketwatch.com","146199"
"www.thomann.de","145984"
"www.paperblog.fr","145953"
"www.my.freelancer.com","145892"
"www.srf.ch","145843"
"garden.org","145837"
"honto.jp","145058"
"www.idnes.cz","144999"
"edituraaramis.ro","144897"
"in.pinterest.com","144598"
"www.jotform.com","144451"
"tabelog.com","144168"
"www.lyst.com","144122"
"gowatchit.com","144047"
"www.agingcare.com","143918"
"www.googletagmanager.com","143790"
"www.tripadvisor.co.kr","143780"
"www.beatport.com","143746"
"content.libraries.wsu.edu","143736"
"gazeta-rvs.ru","143685"
"www.cuatro.com","143567"
"www.crunchyroll.com","143560"
"www.otto.de","143395"
"pt.wikipedia.org","143349"
"www.autotrader.com","143161"
"wp.me","143075"
"www.zeit.de","142895"
"sociumin.com","142826"
"www.boxofficemojo.com","142679"
"www.iheart.com","142392"
"shop.nordstrom.com","142365"
"versus.com","142113"
"kaspichan.org","141994"
"pubchem.ncbi.nlm.nih.gov","141991"
"www.biblestudytools.com","141926"
"picasaweb.google.com","141364"
"za.pinterest.com","141294"
"www.larousse.fr","141202"
"baomoi.com","141085"
"www.latimes.com","141050"
"www.livemaster.ru","140627"
"www.pinterest.com.au","139953"
"flashgamesspot.com","139886"
"www.nhl.com","139875"
"saudi.souq.com","139760"
"www.huffingtonpost.com","139710"
"yellow.place","139675"
"showup24.tv","139573"
"www.ebay.es","139474"
"nl.wikipedia.org","139202"
"news.livedoor.com","139107"
"www.yellowbot.com","139078"
"www.sun-sentinel.com","138869"
"www.snapdeal.com","138842"
"www.musumazyliai.lt","138812"
"www.ipernity.com","138502"
"pixels.com","138446"
"www.theatlantic.com","138415"
"www.tripadvisor.co.nz","138365"
"html5-player.libsyn.com","138321"
"hr.airbnb.com","138008"
"rd.springer.com","137939"
"www.tripadvisor.at","137801"
"fi.pinterest.com","137708"
"encyclopedia2.thefreedictionary.com","137674"
"www.sealifebase.ca","137547"
"www.yumpu.com","137475"
"lonestarfootball.net","137453"
"www.gsmarena.com","137394"
"www.realtytrac.com","137227"
"content.next.westlaw.com","137155"
"player.vimeo.com","136403"
"www.curioos.com","136009"
"unsplash.com","135828"
"www.vbox7.com","135767"
"minkara.carview.co.jp","135736"
"northcountyindians.com","135686"
"www.tripadvisor.co.uk","135549"
"digital.library.unt.edu","135190"
"www.pixnet.net","135074"
"www.getyarn.io","135019"
"www.cbsnews.com","134863"
"perlguru.com","134499"
"cn.tripadvisor.com","134399"
"gtr4u.de","133989"
"www.questia.com","133677"
"books.google.com","133597"
"www.kohls.com","133511"
"www.abebooks.com","133408"
"www.trademe.co.nz","133213"
"www.lomography.com","132575"
"www.bustle.com","132257"
"www.ebay.fr","132255"
"www.tripadvisor.co.id","132052"
"www.ultimate-guitar.com","132044"
"patentscope.wipo.int","131994"
"pl.wikipedia.org","131817"
"pocketmags.com","131734"
"www.mail-archive.com","131668"
"manuales.vodafone.es","131537"
"www.reuters.com","131350"
"www.genealogybank.com","131216"
"pro.imdb.com","130828"
"www.gov.uk","130757"
"www.cbinsights.com","130700"
"www.remax.com","130687"
"www.heise.de","130682"
"photos.google.com","130575"
"steamdb.info","130288"
"www.whsmith.co.uk","130066"
"mypage.blogmura.com","129657"
"house.ocn.ne.jp","129404"
"www.homeaway.co.uk","129276"
"www.christies.com","128836"
"britishplacenames.uk","128707"
"hu.pinterest.com","128600"
"imagger.pw","128414"
"support.hp.com","128239"
"cz.pinterest.com","127605"
"www.drugs.com","127186"
"bjmcgs.com","127077"
"www.artsy.net","126901"
"pl.pinterest.com","126806"
"www.zoopla.co.uk","126672"
"www.cnn.com","126541"
"www.copart.com","126348"
"ironodata.info","125669"
"nhadatgiarehn.info","125621"
"helpx.adobe.com","125599"
"www.amazon.es","125497"
"www.marksandspencer.com","125455"
"www.blogtalkradio.com","125250"
"www.govinfo.gov","125034"
"www.kkbox.com","124954"
"www.vecteezy.com","124845"
"vidooly.com","124775"
"www.podbean.com","124329"
"www.forbes.com","124298"
"garlandnissan.com","124269"
"www.rightmove.co.uk","124228"
"www.rottentomatoes.com","124101"
"www.pearltrees.com","123924"
"tw.mall.yahoo.com","123813"
"www.nature.com","123745"
"id.pinterest.com","123602"
"www.environmental-expert.com","123566"
"community.babycenter.com","123391"
"www2.deloitte.com","123333"
"www.tripadvisor.co.za","123266"
"www.quia.com","122975"
"www.lulu.com","122923"
"www.ibm.com","122923"
"www.reddit.com","122873"
"www.sonicbids.com","122790"
"www.swissinfo.ch","122677"
"www.lexology.com","122576"
"www.salespider.com","122234"
"patents.google.com","122136"
"upge.wn.com","122107"
"indiarailinfo.com","122028"
"www.karlu.com","121942"
"www.nhaccuatui.com","121719"
"feeds.feedburner.com","121614"
"blogmarks.net","121434"
"www.rcmart.hk","121390"
"s3.amazonaws.com","121322"
"brokercheck.finra.org","121046"
"item.rakuten.co.jp","120849"
"www.aljazeera.com","120330"
"es.thefreedictionary.com","120149"
"www.gigmasters.com","120123"
"photos.wvu.edu","119877"
"www.hermes.com","119875"
"2folie.com","119783"
"www.dropshiponline.co.uk","119728"
"japan.zdnet.com","119728"
"coggle.it","119669"
"youtube.com","119639"
"www.dealerrater.com","119560"
"jka323.com","119317"
"www.hitta.se","119190"
"www.dictionary.com","118947"
"idp.springer.com","118773"
"siberia-miniatures.ru","118626"
"gaana.com","118601"
"www.digitalspy.com","118592"
"www.homedepot.com","118414"
"ws-na.amazon-adsystem.com","118308"
"ville-chevaigne.fr","117920"
"www.viva.co.id","117919"
"www.tagesspiegel.de","117840"
"www.walmart.ca","117758"
"dairymgt.uwex.edu","117409"
"www.justanswer.com","117272"
"www.selfridges.com","117267"
"torrents-proxy.net","117190"
"super-ogorod.7910.org","116949"
"www.change.org","116870"
"www.twoo.com","116867"
"blog.xuite.net","116832"
"www.msn.com","116801"
"rainbowpages.lk","116773"
"www.gpo.gov","116758"
"www.wordnik.com","116603"
"linkinghub.elsevier.com","116436"
"www.masralarabia.com","116215"
"myadulttapes.com","116182"
"forum.duolingo.com","116130"
"libris.kb.se","116114"
"www.aljazeera.net","116091"
"www.vectorstock.com","116021"
"www.amazon.ca","115806"
"detail.en.china.cn","115696"
"kitchenlabdesignblog.com","115603"
"www.audible.com","115176"
"parlinfo.aph.gov.au","115164"
"forums.animesuki.com","114991"
"www.accuweather.com","114911"
"www.joblo.com","114445"
"www.rover.com","114435"
"www.instructables.com","114268"
"gateway.okhistory.org","114203"
"adisinsight.springer.com","114051"
"io.no","114038"
"printdirect.ru","113838"
"www.geheugenvannederland.nl","113710"
"encycolorpedia.de","113612"
"seatgeek.com","113571"
"arstechnica.com","113568"
"encycolorpedia.fr","113564"
"www.anwalt.de","113417"
"www.hive.co.uk","113362"
"www.pennysaverusa.com","113320"
"www.blogmura.com","113280"
"es.airbnb.com","113257"
"sentence.yourdictionary.com","113200"
"2gis.ru","113163"
"www.adlibris.com","112790"
"www.jiosaavn.com","112684"
"abitofluckfarm.com","112621"
"www.computerhistory.org","112521"
"weststigersforum.com","112489"
"drownedinsound.com","112433"
"www.justjared.com","112172"
"advexplore.com","112062"
"travel.biglobe.ne.jp","111872"
"www.iconfinder.com","111845"
"myhome.nifty.com","111597"
"www.last.fm","111529"
"www.saavn.com","111381"
"www.mlb.com","111377"
"paganshop1.com","111157"
"myanimelist.net","111083"
"www.mtv.fi","111018"
"www.mtvuutiset.fi","110928"
"fr.rosegal.com","110888"
"www.broadwayworld.com","110541"
"mail-archives.apache.org","110536"
"encycolorpedia.pt","110529"
"www.sevenforums.com","110252"
"www.cambridge.org","110182"
"www.hs.fi","110176"
"api.addthis.com","110129"
"myemail.constantcontact.com","110053"
"www.huffingtonpost.co.uk","109952"
"inkbunny.net","109915"
"medical-dictionary.thefreedictionary.com","109869"
"www.cnet.com","109797"
"www.kaskus.co.id","109791"
"www.fool.com","109598"
"www.influenster.com","109590"
"www.coursehero.com","109414"
"www.britannica.com","109364"
"th.airbnb.com","109061"
"hdl.huntington.org","108929"
"docplayer.it","108817"
"www.elfinanciero.com.mx","108394"
"brill.com","108264"
"indbooks.in","108217"
"www.lookhuman.com","108127"
"entreprises.lefigaro.fr","108111"
"www.intellicast.com","108102"
"m.kohls.com","108072"
"pr.ai","108037"
"www.dymocks.com.au","107969"
"libros.duhnnae.com","107917"
"www.samsung.com","107877"
"www.pinterest.pt","107736"
"manga.line.me","107633"
"www.yatra.com","107556"
"significatosogni.net","107543"
"paxful.com","107381"
"www.mostphotos.com","107313"
"dribbble.com","107192"
"encycolorpedia.es","107046"
"www.nu.nl","106859"
"www.staples.com","106854"
"d-nb.info","106831"
"www.smashwords.com","106814"
"idp.nature.com","106709"
"www.frediani.fr","106653"
"www.autoblog.com","106444"
"www.waterstones.com","106396"
"reimgenerator.de","106389"
"www.tomtop.com","106377"
"www.europe1.fr","106372"
"www.ostro.org","106224"
"www.listal.com","106159"
"www.burdastyle.com","106048"
"www.ampmodel.com","106024"
"www.redtube.com","106006"
"gizmodo.com","105980"
"docplayer.pl","105690"
"www.finder.fi","105264"
"www.uludagsozluk.com","105204"
"www.indeed.com","105152"
"zofratacna.com.pe","105138"
"www.tienphong.vn","105052"
"www.matchendirect.fr","104952"
"www.repairclinic.com","104944"
"www.eventbrite.com.au","104892"
"euroclearbg.com","104734"
"www.bookdirectrooms.com","104733"
"www.te.com","104680"
"global.rakuten.com","104644"
"www.fashiolista.com","104435"
"ro.pinterest.com","104316"
"archives.newyorker.com","104226"
"jpop.com","104186"
"jobs.marriott.com","104029"
"no.pinterest.com","104012"
"www.wired.com","103885"
"lockerdome.com","103841"
"loveplanet.ru","103746"
"www.eslite.com","103556"
"connect.unity.com","103546"
"www.geogebra.org","103523"
"docplayer.nl","103483"
"www.shutterstock.com","103400"
"articles.baltimoresun.com","103380"
"www.lecteurs.com","103268"
"www.videoblocks.com","103129"
"tw.bid.yahoo.com","103090"
"ndl.iitkgp.ac.in","102996"
"www.vsemayki.ru","102904"
"www.dictionarroman.ro","102890"
"www.amazon.it","102752"
"q.hatena.ne.jp","102711"
"sciencetech.gr","102679"
"www.myfxbook.com","102655"
"www.aussieweb.com.au","102460"
"www.rocket-exp.com","102174"
"www.snooth.com","102166"
"quickfixappliancerepair.com","102075"
"wikitravel.org","101985"
"www.europeana.eu","101969"
"diary.diet-pinky.com","101948"
"www.hollywoodreporter.com","101815"
"www.lybrate.com","101783"
"www.airbnb.ru","101637"
"www.dpreview.com","101449"
"spravy.vyveska.sk","101368"
"social-plugins.line.me","101283"
"www.techrepublic.com","101226"
"tw.creema.net","101169"
"www.vinted.es","101137"
"www.hhv.de","101093"
"docplayer.dk","101020"
"kaspi.kz","100924"
"www.iubenda.com","100923"
"www.sfgate.com","100902"
"www.abritel.fr","100717"
"egypt.souq.com","100690"
"docs.microsoft.com","100629"
"www.toolserver.org","100584"
"www.airbnb.nl","100534"
"www.encyclopedia.com","100514"
"site.china.cn","100340"
"www.wikidata.org","100308"
"www.prada.com","100304"
"moovitapp.com","100283"
"disneyparksmomspanel.disney.go.com","100063"
"www.kirkusreviews.com","100017"
"ediciones.uc.cl","99928"
"www.freelancer.com","99819"
"fr.thefreedictionary.com","99818"
"forums.guestbook.com.tw","99743"
"www.wolframalpha.com","99642"
"alghad.com","99641"
"www.saturn.de","99636"
"stock.adobe.com","99591"
"www.islamicfinder.org","99554"
"www.emuparadise.me","99482"
"www.myshared.ru","99457"
"letrasdemusica.com.br","99438"
"encycolorpedia.jp","99378"
"lta.reuters.com","99227"
"www.rosegal.com","99172"
"www.bizcommunity.com","98910"
"www.shipspotting.com","98845"
"article.wn.com","98811"
"m.jd.id","98807"
"shop.mango.com","98692"
"www.pornhub.com","98682"
"www.bukalapak.com","98594"
"de.thefreedictionary.com","98592"
"readymag.com","98565"
"r.gnavi.co.jp","98480"
"www.npr.org","98436"
"ls2pac.lapl.org","98419"
"www.simplyhired.com","98378"
"www.elnuevodiario.com.ni","98301"
"www.boursedirect.fr","98286"
"www.homehardware.ca","98246"
"lenta.ru","98161"
"www.avsim.com","98106"
"www.doomworld.com","97858"
"blog.csdn.net","97280"
"forum.fok.nl","97278"
"shop.proof.ru","97249"
"www.poemhunter.com","97193"
"www.deezer.com","97048"
"www.myspace.com","96928"
"www.edmunds.com","96883"
"www.afb.org","96697"
"www.eventbrite.ca","96628"
"mp3clips.info","96579"
"www.eventbrite.co.uk","96507"
"www.whitepages.com.au","96206"
"investing.businessweek.com","96196"
"booksandjournals.brillonline.com","96171"
"eksisozluk.com","96169"
"search.lib.virginia.edu","96144"
"community.plotagon.com","96119"
"www.deviantart.com","96106"
"listings.homestead.com","96104"
"www.ig.com","96034"
"lubimyczytac.pl","95913"
"www.ots.at","95762"
"24tv.ua","95578"
"www.hipaaspace.com","95551"
"www.caigou.com.cn","95548"
"www.game.co.uk","95495"
"lh3.googleusercontent.com","95488"
"mir-lady.com","95455"
"www.thesun.co.uk","95430"
"www.airbnb.ca","95402"
"viaf.org","95289"
"www.searchtruth.com","95168"
"www.chiefsplanet.com","95099"
"www.ranker.com","95007"
"ru.rosegal.com","94941"
"www.elitepvpers.com","94877"
"www.vpro.nl","94814"
"www.craftkitsandsupplies.com","94756"
"www.espn.com","94750"
"www.trendhunter.com","94581"
"www.hotnewhiphop.com","94508"
"twypage.com","94348"
"www.dailystrength.org","94193"
"golos.io","94080"
"www.yummly.com","93986"
"www.banki.ru","93957"
"support.norton.com","93908"
"ru.wikipedia.org","93803"
"dp.la","93705"
"www.bloomberg.co.jp","93677"
"elitetvstream.com","93551"
"www.volunteermatch.org","93470"
"docplayer.fr","93468"
"lynnfieldmeatanddeli.com","93440"
"www.realmusic.ru","93434"
"m.ruten.com.tw","93346"
"www.rockit.it","93342"
"cookpad.com","93249"
"docs.cntd.ru","93084"
"www.moscow-faq.ru","92870"
"www.skarnik.by","92853"
"gethuman.com","92820"
"www.audible.de","92798"
"appadvice.com","92763"
"www.proximustv.be","92531"
"investorsstocks.com","92521"
"www.s-ajfan.com","92501"
"findingresult.com","92487"
"whaber.net","92442"
"mobile.kohls.com","92396"
"docplayer.me","92379"
"www.brainscape.com","92354"
"www.9news.com.au","92234"
"www.bizvotes.com","92024"
"www.vitals.com","91945"
"www.ebay.it","91903"
"www.9asset.com","91844"
"www.joox.com","91765"
"www.forumku.com","91718"
"www.immobilien-realestate.com","91710"
"www.ancientfaces.com","91681"
"www.indiatvnews.com","91655"
"ello.co","91630"
"www.trilulilu.ro","91572"
"www.wattpad.com","91565"
"www.blogarama.com","91546"
"lomonosov-msu.ru","91544"
"signon.thomsonreuters.com","91485"
"www.farpost.ru","91468"
"www.proz.com","91452"
"dotup.org","91233"
"wikivisually.com","91231"
"www.yellowbook.com","91199"
"docplayer.cz","91156"
"en.wiktionary.org","91123"
"www.vanguardia.com","90982"
"www.phoenixcontact.com","90956"
"m.mp3.zing.vn","90671"
"vnexpress.net","90664"
"www.dlook.com.au","90632"
"www.kickstarter.com","90617"
"usclibstore.usc.edu","90140"
"translate.ir24.org","90121"
"recipesmicrowave.com","90117"
"g.bookwalker.jp","90078"
"wowma.jp","89959"
"www.ozmusiconline.com.au","89859"
"t.me","89821"
"www.indiatoday.in","89818"
"digitalcollections.lib.washington.edu","89677"
"bradbenischek.com","89605"
"ru.thefreedictionary.com","89602"
"www.songsterr.com","89479"
"m.srf.ch","89425"
"nnminrui.com","89296"
"variety.com","89137"
"publikationen.bibliothek.kit.edu","89133"
"www.bikebandit.com","89095"
"themeforest.net","89034"
"www.mangazenkan.com","88998"
"eepurl.com","88987"
"www.peakbagger.com","88959"
"www.solostocks.com","88925"
"www.playbill.com","88793"
"www.airbnb.jp","88763"
"itch.io","88735"
"www.insiderpages.com","88666"
"www.tripadvisor.co","88624"
"www.etsystudio.com","88499"
"www.inside-games.jp","88348"
"lawyers.usnews.com","88325"
"www.bundesliga.com","88313"
"bmw5erclub.ru","88095"
"www.businessinsider.com.au","88077"
"www.csmonitor.com","88063"
"musclecarhaven.com","88000"
"www.booksamillion.com","87952"
"www.neckermann.at","87937"
"www.hatena.ne.jp","87849"
"www.challenges.fr","87839"
"packages.debian.org","87773"
"studybible.info","87755"
"www.hotel.info","87642"
"www.alza.cz","87624"
"www.areavibes.com","87576"
"ar.wikipedia.org","87564"
"www.artstation.com","87534"
"www.sermoncentral.com","87386"
"www-secure.symantec.com","87305"
"us.vwr.com","87283"
"wordnik.com","87278"
"encycolorpedia.com","87142"
"yp.blogflux.com","86959"
"ec.europa.eu","86940"
"fa.wikipedia.org","86862"
"www.spiegel.de","86852"
"www.mollat.com","86737"
"get.google.com","86719"
"case-modder.de","86681"
"buy.line.me","86650"
"hemeroteca.lavanguardia.com","86536"
"oppositelock.kinja.com","86437"
"busqueda.chron.com","86350"
"www.allmovie.com","86192"
"www.espares.co.uk","86167"
"apesa.live","86141"
"www.opensecrets.org","85955"
"www.sutori.com","85884"
"www.express.co.uk","85861"
"coconala.com","85846"
"www.1st-art-gallery.com","85842"
"www.newsmax.com","85836"
"organicearth.eu","85827"
"www.hotukdeals.com","85803"
"v.qq.com","85795"
"cheezburger.com","85760"
"www.reed.co.uk","85616"
"www.pnas.org","85601"
"russian.rt.com","85587"
"www.eurowings.com","85365"
"www.apwagner.com","85169"
"www.artfinder.com","85135"
"hotel-paros.com","85070"
"tubetopia.com","84864"
"www.franceculture.fr","84839"
"www.spritzgussweb.de","84822"
"www.datpiff.com","84813"
"www.cultura.com","84628"
"m.tw.weibo.com","84602"
"www.moviepostershop.com","84515"
"www.foxsports.com","84457"
"www.enutrition.cl","84441"
"www.fabric.com","84415"
"index.co","84376"
"www.gucci.com","84311"
"www.ebookjapan.jp","84307"
"www.storyboardthat.com","84263"
"www.osnews.com","84202"
"www.christianbook.com","84053"
"classicguitare.com","84022"
"www.gumtree.sg","83978"
"www.fler.cz","83967"
